MATLAB is selecting SOFTWARE OPENGL rendering.

                            < M A T L A B (R) >
                  Copyright 1984-2017 The MathWorks, Inc.
                   R2017b (9.3.0.713579) 64-bit (glnxa64)
                             September 14, 2017

 
To get started, type one of these: helpwin, helpdesk, or demo.
For product information, visit www.mathworks.com.
 

---------------------------------------------------------------------------
CVX: Software for Disciplined Convex Programming       (c)2014 CVX Research
Version 2.1, Build 1127 (95903bf)                  Sat Dec 15 18:52:07 2018
---------------------------------------------------------------------------
Installation info:
    Path: /beegfs/swift/alphacruncher.net/korsayes/MATLAB/external2/cvx
    MATLAB version: 9.3 (R2017b)
    OS: Linux amd64 version 3.10.0-862.3.2.el7.x86_64
    Java version: 1.8.0_121
Verfying CVX directory contents:
    No missing files.
Preferences: 
    Path: /beegfs/swift/alphacruncher.net/korsayes/.matlab/cvx_prefs.mat
License host:
    Username: korsayes
    Host ID: 0201d2193f44 (eth0,10.141.0.1)
Installed license:
    No license installed.
No valid licenses found.
    <a href="http://cvxr.com/cvx/academic?c_act=fill&c_unm=korsayes&c_hid=0201d2193f44
">Click here</a> to fill out an academic license request
    for the username and first hostid listed above.
---------------------------------------------------------------------------
Setting CVX paths...done.
Saving updated path...failed. (see below)
Searching for solvers...5 shims found.
2 solvers initialized (* = default):
 *  SDPT3    4.0         {cvx}/sdpt3
    SeDuMi   1.34        {cvx}/sedumi
3 solvers skipped:
    GLPK                 
        Could not find a GLPK installation.
    Gurobi   unknown     {cvx}/gurobi/a64
        Using Gurobi with CVX requires an academic Gurobi license
        and a Gurobi-enabled CVX Professional license.
    Mosek    8.0.0.60    {cvx}/mosek/a64
        Using MOSEK with CVX requires an academic MOSEK license
        or a MOSEK-enabled CVX Professional license.
Saving updated preferences...done.
Testing with a simple model...done!
---------------------------------------------------------------------------
To change the default solver, type "cvx_solver <solver_name>".
To save this change for future sessions, type "cvx_save_prefs".
Please consult the users' guide for more information.
---------------------------------------------------------------------------
NOTE: the MATLAB path has been changed to point to the CVX distribution. To
use CVX without having to re-run CVX_SETUP every time MATLAB starts, you
will need to save this path permanently. This script attempted to do this
for you, but failed---likely due to UNIX permissions restrictions.
To solve the problem, create a new file
    /beegfs/swift/alphacruncher.net/korsayes/Documents/MATLAB/startup.m
containing the following line:
    run /beegfs/swift/alphacruncher.net/korsayes/MATLAB/external2/cvx/cvx_startup.m
Then execute the following MATLAB commands:
    userpath reset; startup
Please consult the MATLAB documentation for more information about the
startup.m file and its proper placement and usage.
---------------------------------------------------------------------------

Starting parallel pool (parpool) using the 'local' profile ...
